Project 2: Data Mining, Classification, Prediction
…
    values_to = "MaxTemp")
Weather <- Weather %>% pivot_longer(3:4, names_to = "names2", 
    values_to = "MinTemp")
Weather <- Weather %>% pivot_longer(3:4, names_to = "names3", 
    values_to = "Precip")
Weather <- Weather %>% pivot_longer(3:4, names_to = "names4", 
    values_to = "Location")
Weather <- Weather %>% select(-names, -names2, -names3, -names4)
Weather <- Weather %>% na.omit()
Weather <- Weather %>% dplyr::rename(Precipitation = "Precip")
Weather <- Weather %>% select(Location, Month, Year, MaxTemp, 
    MinTemp, Precipitation)
Weather

## # A tibble: 367 x 6
##    Location Month  Year MaxTemp MinTemp Precipitation
##    <chr>    <int> <int>   <int>   <int>         <dbl>
##  1 Lincoln      1  2016      37      11             0
##  2 Lincoln      1  2016      41       5             0
##  3 Lincoln      1  2016      37       8             0
##  4 Lincoln      1  2016      30       4             0
##  5 Lincoln      1  2016      38      19             0
##  6 Lincoln      1  2016      33      27             0
##  7 Lincoln      1  2016      28      22             0
##  8 Lincoln      1  2016      31      -9             0
##  9 Lincoln      1  2016      37      18             0
## 10 Lincoln      1  2016      47      19             0
## #  with 357 more rows
…
